{
  "resourceName": "s35d2e9364",
  "policyUUID": "5d2e9364",
  "bucketName": "reparet4785a4c9743e4ea4bb73404efc007e48",
  "storageAccess": "authAndGuest",
  "guestAccess": [
    "CREATE_AND_UPDATE",
    "READ",
    "DELETE"
  ],
  "authAccess": [
    "CREATE_AND_UPDATE",
    "READ",
    "DELETE"
  ],
  "triggerFunction": "NONE",
  "groupAccess": {}
}