{
  "providers": {
    "awscloudformation": {
      "AuthRoleName": "amplify-reparet-dev-101944-authRole",
      "UnauthRoleArn": "arn:aws:iam::439163648130:role/amplify-reparet-dev-101944-unauthRole",
      "AuthRoleArn": "arn:aws:iam::439163648130:role/amplify-reparet-dev-101944-authRole",
      "Region": "ap-south-1",
      "DeploymentBucketName": "amplify-reparet-dev-101944-deployment",
      "UnauthRoleName": "amplify-reparet-dev-101944-unauthRole",
      "StackName": "amplify-reparet-dev-101944",
      "StackId": "arn:aws:cloudformation:ap-south-1:439163648130:stack/amplify-reparet-dev-101944/c7672a00-55b2-11ed-b1c5-0a5dc7da2fa0",
      "AmplifyAppId": "d2q25ua2cr4oq1"
    }
  },
  "auth": {
    "reparet8918d7fb": {
      "service": "Cognito",
      "providerPlugin": "awscloudformation",
      "dependsOn": [],
      "customAuth": false,
      "frontendAuthConfig": {
        "socialProviders": [],
        "usernameAttributes": [],
        "signupAttributes": [
          "EMAIL"
        ],
        "passwordProtectionSettings": {
          "passwordPolicyMinLength": 8,
          "passwordPolicyCharacters": []
        },
        "mfaConfiguration": "OFF",
        "mfaTypes": [
          "SMS"
        ],
        "verificationMechanisms": [
          "EMAIL"
        ]
      },
      "providerMetadata": {
        "s3TemplateURL": "https://s3.amazonaws.com/amplify-reparet-dev-101944-deployment/amplify-cfn-templates/auth/reparet8918d7fb-cloudformation-template.json",
        "logicalId": "authreparet8918d7fb"
      },
      "lastPushTimeStamp": "2022-10-27T05:14:11.724Z",
      "output": {
        "UserPoolId": "ap-south-1_Hx5o2HnsU",
        "AppClientIDWeb": "1496tv6aaq7i2vd520v62s9o5",
        "AppClientID": "4fqfq9numk0jgdtpjfs5dgnsjt",
        "IdentityPoolId": "ap-south-1:a61a7db1-d6ce-4a8d-bc4b-1ccc7436287a",
        "UserPoolArn": "arn:aws:cognito-idp:ap-south-1:439163648130:userpool/ap-south-1_Hx5o2HnsU",
        "IdentityPoolName": "reparet8918d7fb_identitypool_8918d7fb__dev",
        "UserPoolName": "reparet8918d7fb_userpool_8918d7fb"
      },
      "lastPushDirHash": "CwUukOVG8EtF6px2MpZOxqb6GMo="
    }
  },
  "storage": {
    "s35d2e9364": {
      "service": "S3",
      "providerPlugin": "awscloudformation",
      "dependsOn": [],
      "lastPushTimeStamp": "2022-10-27T05:14:11.724Z",
      "providerMetadata": {
        "s3TemplateURL": "https://s3.amazonaws.com/amplify-reparet-dev-101944-deployment/amplify-cfn-templates/storage/cloudformation-template.json",
        "logicalId": "storages35d2e9364"
      },
      "output": {
        "BucketName": "reparet4785a4c9743e4ea4bb73404efc007e48101944-dev",
        "Region": "ap-south-1"
      },
      "lastPushDirHash": "LwOQNv8T8NXJrytnVa6H8qEKhRs="
    }
  }
}